<svg xmlns="http://www.w3.org/2000/svg" xmlns:xlink="http://www.w3.org/1999/xlink" width="240" height="72" viewBox="0 0 240 72">
    <defs>
        <path id="b" d="M63.127 59.403c.972 4.937 4.454 7.101 8.717 7.101 3.435 0 9.038-1.06 13.635-7.522.854 5.236 4.41 7.522 8.793 7.522 3.435 0 9.038-1.06 13.635-7.522.854 5.236 4.41 7.522 8.793 7.522 3.36 0 7.812-1.008 11.928-7.056 1.008 4.704 4.62 7.056 10.08 7.056 17.136 0 23.94-23.436 23.94-36.876 0-3.696-1.26-7.308-5.292-7.308-3.528 0-5.208 1.932-5.208 4.536 0 1.848 1.008 4.284 3.024 4.284.672 0 2.436-.252 2.688-.84 0 9.24-6.3 28.056-14.532 28.056-2.016 0-2.856-1.092-2.856-2.772 0-.756.168-1.848.42-3.024L146.94 24h-12.096l-5.712 26.964c-1.26 4.2-3.444 7.392-6.72 7.392-1.932 0-2.52-1.764-2.52-3.696 0-.672.084-1.428.252-2.1L126.192 24h-12.096l-5.712 26.964c-1.26 4.2-4.284 7.392-7.56 7.392-2.352 0-3.444-.756-3.444-3.108 0-.756.084-1.596.336-2.688L103.764 24H91.668l-5.712 26.964c-1.26 4.2-4.284 7.392-7.56 7.392-2.352 0-3.444-.756-3.444-3.108 0-.756.084-1.596.336-2.688L81.336 24H69.24l-5.712 26.964c-1.848 4.368-3.36 7.392-7.056 7.392-2.604 0-3.276-1.428-3.276-3.108 0-.924.252-1.848.42-2.688l.924-4.2c.252-1.092.336-2.184.336-3.192 0-5.376-3.024-9.828-9.24-9.828-.924 0-1.848.168-2.772.336L59.664 24h-8.316L35.136 36.768l6.3-29.568-12.432 1.68L16.824 66H28.92l4.368-20.748c2.352-1.932 4.284-3.108 6.216-3.108 2.184 0 3.024 1.596 3.024 4.032 0 .924-.084 2.016-.336 3.108l-.672 3.276c-.336 1.596-.504 3.024-.504 4.368 0 6.132 3.696 9.576 10.584 9.576 2.89 0 7.422-.798 11.527-7.1zM184.2 61.046L183.144 66h12.096l4.368-20.748c2.352-1.932 4.284-3.108 6.216-3.108 2.184 0 3.024 1.596 3.024 4.032 0 .924-.084 2.016-.336 3.108l-.672 3.276c-.336 1.596-.504 3.024-.504 4.368 0 6.132 3.696 9.576 10.584 9.576 2.184 0 7.392-2.688 7.812-8.652-.588.252-.924.504-2.94.504-2.604 0-3.276-1.428-3.276-3.108 0-.924.252-1.848.42-2.688l.924-4.2c.252-1.092.336-2.184.336-3.192 0-5.376-3.024-9.828-9.24-9.828-.924 0-1.848.168-2.772.336L225.984 24h-8.316l-16.212 12.768 6.3-29.568-12.432 1.68-8.974 42.084h-.014c-1.26 4.2-4.284 7.392-7.56 7.392-2.352 0-3.444-.756-3.444-3.108 0-.756.084-1.596.336-2.688L181.716 24H169.62l-5.712 26.964c-.42 2.016-.672 3.864-.672 5.46 0 7.056 3.948 10.08 8.988 10.08 3.031 0 7.75-.825 11.976-5.458z"/>
        <filter id="a" width="103.3%" height="111.8%" x="-1.7%" y="-4.2%" filterUnits="objectBoundingBox">
            <feOffset dy="1" in="SourceAlpha" result="shadowOffsetOuter1"/>
            <feGaussianBlur in="shadowOffsetOuter1" result="shadowBlurOuter1" stdDeviation="1"/>
            <feColorMatrix in="shadowBlurOuter1" values="0 0 0 0 0 0 0 0 0 0 0 0 0 0 0 0 0 0 0.24 0"/>
        </filter>
        <path id="d" d="M171.3 12.828c0-3.696 2.94-6.72 6.636-6.72s6.72 3.024 6.72 6.72c0 3.696-3.024 6.636-6.72 6.636a6.597 6.597 0 0 1-6.636-6.636z"/>
        <filter id="c" width="152.4%" height="152.4%" x="-26.2%" y="-18.7%" filterUnits="objectBoundingBox">
            <feOffset dy="1" in="SourceAlpha" result="shadowOffsetOuter1"/>
            <feGaussianBlur in="shadowOffsetOuter1" result="shadowBlurOuter1" stdDeviation="1"/>
            <feColorMatrix in="shadowBlurOuter1" values="0 0 0 0 0 0 0 0 0 0 0 0 0 0 0 0 0 0 0.24 0"/>
        </filter>
        <path id="f" d="M93.348 12.828a6.597 6.597 0 0 0 6.636 6.636c3.696 0 6.72-2.94 6.72-6.636s-3.024-6.72-6.72-6.72c-3.696 0-6.636 3.024-6.636 6.72z"/>
        <filter id="e" width="152.4%" height="152.4%" x="-26.2%" y="-18.7%" filterUnits="objectBoundingBox">
            <feOffset dy="1" in="SourceAlpha" result="shadowOffsetOuter1"/>
            <feGaussianBlur in="shadowOffsetOuter1" result="shadowBlurOuter1" stdDeviation="1"/>
            <feColorMatrix in="shadowBlurOuter1" values="0 0 0 0 0 0 0 0 0 0 0 0 0 0 0 0 0 0 0.24 0"/>
        </filter>
        <path id="h" d="M70.92 12.828a6.597 6.597 0 0 0 6.636 6.636c3.696 0 6.72-2.94 6.72-6.636s-3.024-6.72-6.72-6.72c-3.696 0-6.636 3.024-6.636 6.72z"/>
        <filter id="g" width="152.4%" height="152.4%" x="-26.2%" y="-18.7%" filterUnits="objectBoundingBox">
            <feOffset dy="1" in="SourceAlpha" result="shadowOffsetOuter1"/>
            <feGaussianBlur in="shadowOffsetOuter1" result="shadowBlurOuter1" stdDeviation="1"/>
            <feColorMatrix in="shadowBlurOuter1" values="0 0 0 0 0 0 0 0 0 0 0 0 0 0 0 0 0 0 0.24 0"/>
        </filter>
    </defs>
    <g fill="none" fill-rule="evenodd">
        <path d="M0 0h240v72H0z"/>
        <g>
            <use fill="#000" filter="url(#a)" xlink:href="#b"/>
            <use fill="#FFF" xlink:href="#b"/>
        </g>
        <g>
            <use fill="#000" filter="url(#c)" xlink:href="#d"/>
            <use fill="#FFF" xlink:href="#d"/>
        </g>
        <g>
            <use fill="#000" filter="url(#e)" xlink:href="#f"/>
            <use fill="#FFF" xlink:href="#f"/>
        </g>
        <g>
            <use fill="#000" filter="url(#g)" xlink:href="#h"/>
            <use fill="#FFF" xlink:href="#h"/>
        </g>
    </g>
</svg>
